{
    "data": [
        {
            "id": 483,
            "documentId": "qfqikrcu0t3y59nwfly2wr4e",
            "name": "Digital Light",
            "configJson": {
                "name": "Digital Light",
                "kpayId": "49240698"
            },
            "designStatus": "submitted",
            "description": "Digital Light",
            "createdAt": "2025-03-28T13:30:52.174Z",
            "updatedAt": "2025-04-05T14:59:36.590Z",
            "publishedAt": "2025-03-28T13:30:52.170Z",
            "kpayId": "49240698",
            "userId": "1",
            "screenshotUrl": "https://files.garminface.com/background_0c65ccd06a.png",
            "screenshot": null
        }
    ],
    "meta": {
        "pagination": {
            "page": 1,
            "pageSize": 36,
            "pageCount": 2,
            "total": 64
        }
    }
}